<?xml version="1.0" standalone="no"?>
<!DOCTYPE svg PUBLIC "-//W3C//DTD SVG 20010904//EN"
 "http://www.w3.org/TR/2001/REC-SVG-20010904/DTD/svg10.dtd">
<svg version="1.0" xmlns="http://www.w3.org/2000/svg"
 width="1539.000000pt" height="465.000000pt" viewBox="0 0 1539.000000 465.000000"
 preserveAspectRatio="xMidYMid meet">
<metadata>
Created by potrace 1.16, written by Peter Selinger 2001-2019
</metadata>
<g transform="translate(0.000000,465.000000) scale(0.100000,-0.100000)"
fill="#000000" stroke="none">
<path d="M120 4492 c0 -5 106 -229 236 -498 129 -269 251 -524 271 -566 l36
-78 1552 0 1552 0 36 78 c19 42 71 151 115 242 267 552 392 814 392 822 0 4
-125 8 -278 8 l-279 0 -158 -320 -159 -320 -1221 0 -1221 0 -158 320 -159 320
-278 0 c-154 0 -279 -4 -279 -8z"/>
<path d="M14295 3475 c-233 -51 -400 -203 -445 -406 -8 -36 -11 -99 -8 -175 6
-139 25 -201 91 -289 87 -118 201 -180 544 -296 210 -71 300 -115 371 -182 85
-81 97 -111 97 -242 0 -100 -2 -115 -27 -161 -32 -60 -94 -119 -157 -147 -65
-30 -235 -36 -317 -12 -146 42 -251 147 -289 290 l-18 65 -148 0 -148 0 5 -37
c38 -276 252 -487 553 -548 117 -24 358 -17 451 13 193 63 336 209 385 392 20
73 19 249 0 325 -24 92 -71 169 -146 240 -80 75 -165 118 -369 190 -373 131
-408 146 -482 213 -68 62 -91 113 -96 213 -7 149 46 247 166 306 54 26 65 28
187 28 127 0 132 -1 196 -32 100 -50 172 -136 212 -255 6 -16 22 -18 157 -18
82 0 150 3 150 8 0 4 -7 36 -15 71 -39 165 -157 308 -318 385 -52 25 -126 52
-169 60 -95 20 -327 20 -413 1z"/>
<path d="M5225 3373 c33 -125 515 -2019 515 -2027 0 -3 78 -6 174 -6 158 0
175 2 180 18 2 9 109 388 237 842 127 454 235 828 238 832 3 4 114 -375 245
-843 l240 -849 173 0 172 0 10 38 c74 284 521 2062 521 2071 0 8 -46 11 -153
11 l-153 0 -200 -879 c-109 -484 -202 -877 -205 -873 -4 5 -446 1579 -487
1735 -4 15 -20 17 -163 17 -88 0 -159 -2 -159 -4 0 -9 -481 -1733 -487 -1748
-7 -16 -73 269 -390 1685 l-15 67 -158 0 -159 0 24 -87z"/>
<path d="M8250 2400 l0 -1060 585 0 585 0 0 110 0 110 -445 0 -445 0 0 370 0
370 400 0 400 0 0 105 0 105 -400 0 -400 0 0 365 0 365 445 0 445 0 0 110 0
110 -585 0 -585 0 0 -1060z"/>
<path d="M9770 2400 l0 -1060 515 0 515 0 0 105 0 105 -375 0 -375 0 0 955 0
955 -140 0 -140 0 0 -1060z"/>
<path d="M11080 2400 l0 -1060 515 0 515 0 0 105 0 105 -375 0 -375 0 0 955 0
955 -140 0 -140 0 0 -1060z"/>
<path d="M12390 2400 l0 -1060 585 0 585 0 0 110 0 110 -445 0 -445 0 0 370 0
370 400 0 400 0 0 105 0 105 -400 0 -400 0 0 365 0 365 445 0 445 0 0 110 0
110 -585 0 -585 0 0 -1060z"/>
<path d="M790 3084 c0 -7 -6 4 420 -879 183 -379 359 -744 390 -810 32 -66
151 -313 265 -550 113 -236 238 -497 277 -578 39 -81 76 -146 81 -144 5 1 120
236 256 522 137 286 452 948 701 1470 249 523 454 956 457 963 4 9 -284 12
-1421 12 -784 0 -1426 -3 -1426 -6z m1986 -616 c-29 -62 -122 -257 -206 -433
-84 -176 -195 -410 -247 -520 -90 -191 -113 -233 -113 -208 0 6 -104 226 -231
489 -127 264 -244 507 -260 541 -16 34 -49 103 -74 153 l-45 90 615 0 614 0
-53 -112z"/>
<path d="M10580 480 l0 -340 45 0 45 0 0 135 0 135 103 0 c139 1 206 32 236
113 18 48 13 153 -9 197 -40 79 -100 100 -287 100 l-133 0 0 -340z m288 238
c39 -19 64 -73 57 -123 -11 -75 -63 -105 -180 -105 l-75 0 0 126 0 127 85 -6
c47 -3 98 -12 113 -19z" fill="#697fa9" />
<path d="M12340 780 l0 -40 95 0 95 0 0 -300 0 -300 45 0 45 0 0 300 0 300 90
0 90 0 0 40 0 40 -230 0 -230 0 0 -40z" fill="#697fa9" />
<path d="M13610 480 l0 -340 185 0 185 0 0 40 0 40 -140 0 -140 0 0 110 0 110
125 0 125 0 0 35 0 35 -125 0 -125 0 0 115 0 115 140 0 140 0 0 40 0 40 -185
0 -185 0 0 -340z" fill="#697fa9" />
<path d="M14770 798 c-64 -32 -90 -76 -90 -150 0 -107 34 -143 183 -197 133
-48 153 -61 168 -109 22 -76 -41 -139 -129 -129 -54 6 -91 32 -115 80 -17 35
-22 37 -64 37 l-46 0 6 -37 c14 -82 106 -152 210 -160 105 -9 186 27 222 98
20 37 19 133 -1 175 -22 47 -53 66 -162 105 -52 17 -108 42 -125 53 -62 42
-71 103 -22 152 51 51 183 22 208 -46 10 -28 15 -30 59 -30 56 0 60 10 28 75
-36 74 -100 105 -214 105 -55 0 -83 -5 -116 -22z" fill="#697fa9" />
<path d="M11810 475 l0 -335 45 0 45 0 0 140 0 140 43 0 42 0 85 -140 85 -139
57 -1 58 0 -45 70 c-25 38 -65 101 -89 139 l-44 68 38 12 c50 15 99 56 116 98
20 47 18 137 -5 181 -44 86 -87 102 -281 102 l-150 0 0 -335z m272 245 c53
-15 78 -51 78 -112 0 -91 -32 -115 -170 -125 l-90 -6 0 127 0 126 73 0 c39 0
89 -5 109 -10z" fill="#697fa9" />
<path d="M12920 475 l0 -335 45 0 45 0 2 253 3 253 165 -253 165 -253 48 0 47
0 0 335 0 335 -45 0 -45 0 -2 -254 -3 -253 -165 253 -165 254 -47 0 -48 0 0
-335z" fill="#697fa9" />
<path d="M14120 475 l0 -335 45 0 45 0 0 140 0 140 43 0 42 0 85 -140 85 -139
57 -1 58 0 -45 70 c-25 38 -65 101 -89 139 l-44 68 38 12 c50 15 99 56 116 98
20 47 18 137 -5 181 -44 86 -87 102 -281 102 l-150 0 0 -335z m272 245 c53
-15 78 -51 78 -112 0 -91 -32 -115 -170 -125 l-90 -6 0 127 0 126 73 0 c39 0
89 -5 109 -10z" fill="#697fa9" />
<path d="M11335 788 c-7 -21 -222 -590 -234 -620 l-11 -28 54 0 54 0 27 75 28
75 141 0 141 0 28 -75 28 -75 53 0 54 0 -123 328 -123 327 -56 3 c-39 2 -58
-1 -61 -10z m113 -253 c28 -77 53 -148 57 -157 7 -17 -2 -18 -110 -18 -89 0
-116 3 -113 13 3 6 29 78 58 160 29 81 54 146 56 145 1 -2 24 -66 52 -143z" fill="#697fa9" />
</g>
</svg>